Lab10/pm.vcd
$date
	Sun Apr  4 21:59:28 2021
$end
$version
	Icarus Verilog
$end
$timescale
	1s
$end
$scope module test $end
$var wire 32 ! PC [31:0] $end
$var reg 1 " clk $end
$var reg 1 # done $end
$var reg 1 $ reset $end
$var integer 32 % i [31:0] $end
$scope module pm $end
$var wire 1 & PCSrc $end
$var wire 1 " clk $end
$var wire 1 ' forwardA $end
$var wire 1 ( forwardB $end
$var wire 1 $ reset $end
$var wire 1 ) stall $end
$var wire 1 * zero $end
$var wire 5 + wr_regnum_MW [4:0] $end
$var wire 5 , wr_regnum [4:0] $end
$var wire 32 - wr_data [31:0] $end
$var wire 5 . rt [4:0] $end
$var wire 5 / rs [4:0] $end
$var wire 32 0 rd2_data [31:0] $end
$var wire 32 1 rd1_data [31:0] $end
$var wire 5 2 rd [4:0] $end
$var wire 30 3 pc_adder_out [31:2] $end
$var wire 6 4 opcode [5:0] $end
$var wire 30 5 next_PC [31:2] $end
$var wire 32 6 memory_out [31:0] $end
$var wire 32 7 load_data [31:0] $end
$var wire 32 8 inst [31:0] $end
$var wire 32 9 imm [31:0] $end
$var wire 6 : funct [5:0] $end
$var wire 32 ; forwardB_mux_out [31:0] $end
$var wire 32 < forwardA_mux_out [31:0] $end
$var wire 32 = dataPipe_out [31:0] $end
$var wire 32 > alu_out_data [31:0] $end
$var wire 32 ? alu_out [31:0] $end
$var wire 1 @ RegWrite_MW $end
$var wire 1 A RegWrite $end
$var wire 1 B RegDst_MW $end
$var wire 1 C RegDst $end
$var wire 30 D PC_target [31:2] $end
$var wire 30 E PC_plus4 [31:2] $end
$var wire 32 F PC [31:0] $end
$var wire 1 G MemWrite_MW $end
$var wire 1 H MemWrite $end
$var wire 1 I MemToReg_MW $end
$var wire 1 J MemToReg $end
$var wire 1 K MemRead_MW $end
$var wire 1 L MemRead $end
$var wire 32 M B_data [31:0] $end
$var wire 1 N BEQ_MW $end
$var wire 1 O BEQ $end
$var wire 1 P ALUSrc_MW $end
$var wire 1 Q ALUSrc $end
$var wire 3 R ALUOp_MW [2:0] $end
$var wire 3 S ALUOp [2:0] $end
$scope module ALUSrcPipeline $end
$var wire 1 " clk $end
$var wire 1 T enable $end
$var wire 1 $ reset $end
$var wire 1 Q d $end
$var reg 1 P q $end
$upscope $end
$scope module PC_reg $end
$var wire 1 " clk $end
$var wire 1 U enable $end
$var wire 1 $ reset $end
$var wire 30 V d [29:0] $end
$var reg 30 W q [29:0] $end
$upscope $end
$scope module alu $end
$var wire 32 X out [31:0] $end
$var wire 1 * zero $end
$var wire 32 Y inB [31:0] $end
$var wire 32 Z inA [31:0] $end
$var wire 3 [ control [2:0] $end
$upscope $end
$scope module aluDataPipeline $end
$var wire 1 " clk $end
$var wire 32 \ d [31:0] $end
$var wire 1 ] enable $end
$var wire 1 $ reset $end
$var reg 32 ^ q [31:0] $end
$upscope $end
$scope module aluOpPipeline $end
$var wire 1 " clk $end
$var wire 1 _ enable $end
$var wire 1 $ reset $end
$var wire 3 ` d [2:0] $end
$var reg 3 a q [2:0] $end
$upscope $end
$scope module beqPipeline $end
$var wire 1 " clk $end
$var wire 1 b enable $end
$var wire 1 $ reset $end
$var wire 1 O d $end
$var reg 1 N q $end
$upscope $end
$scope module branch_mux $end
$var wire 30 c out [29:0] $end
$var wire 1 & sel $end
$var wire 30 d temp1 [29:0] $end
$var wire 30 e temp2 [29:0] $end
$var wire 30 f B [29:0] $end
$var wire 30 g A [29:0] $end
$upscope $end
$scope module data_memory $end
$var wire 32 h addr [31:0] $end
$var wire 1 " clk $end
$var wire 32 i d_out [31:0] $end
$var wire 32 j data_out [31:0] $end
$var wire 32 k internal_data_in [31:0] $end
$var wire 1 $ reset $end
$var wire 1 l valid_address $end
$var wire 1 G mem_write $end
$var wire 1 K mem_read $end
$var wire 19 m index [18:0] $end
$var wire 32 n data_in [31:0] $end
$var integer 32 o i [31:0] $end
$upscope $end
$scope module decode $end
$var wire 1 Q ALUSrc $end
$var wire 1 J MemToReg $end
$var wire 1 C RegDst $end
$var wire 1 A RegWrite $end
$var wire 6 p funct [5:0] $end
$var wire 1 q nop $end
$var wire 6 r opcode [5:0] $end
$var wire 1 s op0 $end
$var wire 1 H MemWrite $end
$var wire 1 L MemRead $end
$var wire 1 O BEQ $end
$var wire 3 t ALUOp [2:0] $end
$upscope $end
$scope module forwardA_mux $end
$var wire 32 u B [31:0] $end
$var wire 32 v out [31:0] $end
$var wire 1 ' sel $end
$var wire 32 w temp1 [31:0] $end
$var wire 32 x temp2 [31:0] $end
$var wire 32 y A [31:0] $end
$upscope $end
$scope module forwardB_mux $end
$var wire 32 z B [31:0] $end
$var wire 32 { out [31:0] $end
$var wire 1 ( sel $end
$var wire 32 | temp1 [31:0] $end
$var wire 32 } temp2 [31:0] $end
$var wire 32 ~ A [31:0] $end
$upscope $end
$scope module imem $end
$var wire 30 !" addr [29:0] $end
$var wire 32 "" data [31:0] $end
$var reg 32 #" i [31:0] $end
$upscope $end
$scope module imm_mux $end
$var wire 32 $" A [31:0] $end
$var wire 32 %" B [31:0] $end
$var wire 32 &" out [31:0] $end
$var wire 1 P sel $end
$var wire 32 '" temp1 [31:0] $end
$var wire 32 (" temp2 [31:0] $end
$upscope $end
$scope module instructionPipeline $end
$var wire 1 " clk $end
$var wire 32 )" d [31:0] $end
$var wire 1 *" enable $end
$var wire 1 $ reset $end
$var reg 32 +" q [31:0] $end
$upscope $end
$scope module memReadPipeline $end
$var wire 1 " clk $end
$var wire 1 L d $end
$var wire 1 ," enable $end
$var wire 1 $ reset $end
$var reg 1 K q $end
$upscope $end
$scope module memToRegPipeline $end
$var wire 1 " clk $end
$var wire 1 J d $end
$var wire 1 -" enable $end
$var wire 1 $ reset $end
$var reg 1 I q $end
$upscope $end
$scope module memWritePipeline $end
$var wire 1 " clk $end
$var wire 1 H d $end
$var wire 1 ." enable $end
$var wire 1 $ reset $end
$var reg 1 G q $end
$upscope $end
$scope module next_PC_adder $end
$var wire 30 /" in1 [29:0] $end
$var wire 30 0" in2 [29:0] $end
$var wire 30 1" out [29:0] $end
$upscope $end
$scope module pcPipeline $end
$var wire 1 " clk $end
$var wire 30 2" d [29:0] $end
$var wire 1 3" enable $end
$var wire 1 $ reset $end
$var reg 30 4" q [29:0] $end
$upscope $end
$scope module rd_mux $end
$var wire 5 5" A [4:0] $end
$var wire 5 6" B [4:0] $end
$var wire 5 7" out [4:0] $end
$var wire 1 C sel $end
$var wire 5 8" temp1 [4:0] $end
$var wire 5 9" temp2 [4:0] $end
$upscope $end
$scope module regDstPipeline $end
$var wire 1 " clk $end
$var wire 1 C d $end
$var wire 1 :" enable $end
$var wire 1 $ reset $end
$var reg 1 B q $end
$upscope $end
$scope module regWritePipeline $end
$var wire 1 " clk $end
$var wire 1 A d $end
$var wire 1 ;" enable $end
$var wire 1 $ reset $end
$var reg 1 @ q $end
$upscope $end
$scope module regnumPipeline $end
$var wire 1 " clk $end
$var wire 5 <" d [4:0] $end
$var wire 1 =" enable $end
$var wire 1 $ reset $end
$var reg 5 >" q [4:0] $end
$upscope $end
$scope module rf $end
$var wire 1 " clock $end
$var wire 32 ?" internal_rdData [31:0] $end
$var wire 5 @" rdNum [4:0] $end
$var wire 1 @ rdWriteEnable $end
$var wire 1 $ reset $end
$var wire 32 A" rsData [31:0] $end
$var wire 5 B" rsNum [4:0] $end
$var wire 32 C" rtData [31:0] $end
$var wire 5 D" rtNum [4:0] $end
$var wire 32 E" rdData [31:0] $end
$var integer 32 F" i [31:0] $end
$upscope $end
$scope module target_PC_adder $end
$var wire 30 G" in1 [29:0] $end
$var wire 30 H" in2 [29:0] $end
$var wire 30 I" out [29:0] $end
$upscope $end
$scope module wb_mux $end
$var wire 32 J" A [31:0] $end
$var wire 32 K" B [31:0] $end
$var wire 32 L" out [31:0] $end
$var wire 1 I sel $end
$var wire 32 M" temp1 [31:0] $end
$var wire 32 N" temp2 [31:0] $end
$upscope $end
$scope module writeDataPipeline $end
$var wire 1 " clk $end
$var wire 32 O" d [31:0] $end
$var wire 1 P" enable $end
$var wire 1 $ reset $end
$var reg 32 Q" q [31:0] $end
$upscope $end
$upscope $end
$upscope $end
$scope module test $end
$scope module pm $end
$scope module rf $end
$var reg 32 R" \r[0] [31:0] $end
$upscope $end
$upscope $end
$upscope $end
$scope module test $end
$scope module pm $end
$scope module rf $end
$var reg 32 S" \r[1] [31:0] $end
$upscope $end
$upscope $end
$upscope $end
$scope module test $end
$scope module pm $end
$scope module rf $end
$var reg 32 T" \r[2] [31:0] $end
$upscope $end
$upscope $end
$upscope $end
$scope module test $end
$scope module pm $end
$scope module rf $end
$var reg 32 U" \r[3] [31:0] $end
$upscope $end
$upscope $end
$upscope $end
$scope module test $end
$scope module pm $end
$scope module rf $end
$var reg 32 V" \r[4] [31:0] $end
$upscope $end
$upscope $end
$upscope $end
$scope module test $end
$scope module pm $end
$scope module rf $end
$var reg 32 W" \r[5] [31:0] $end
$upscope $end
$upscope $end
$upscope $end
$scope module test $end
$scope module pm $end
$scope module rf $end
$var reg 32 X" \r[6] [31:0] $end
$upscope $end
$upscope $end
$upscope $end
$scope module test $end
$scope module pm $end
$scope module rf $end
$var reg 32 Y" \r[7] [31:0] $end
$upscope $end
$upscope $end
$upscope $end
$scope module test $end
$scope module pm $end
$scope module rf $end
$var reg 32 Z" \r[8] [31:0] $end
$upscope $end
$upscope $end
$upscope $end
$scope module test $end
$scope module pm $end
$scope module rf $end
$var reg 32 [" \r[9] [31:0] $end
$upscope $end
$upscope $end
$upscope $end
$scope module test $end
$scope module pm $end
$scope module rf $end
$var reg 32 \" \r[10] [31:0] $end
$upscope $end
$upscope $end
$upscope $end
$scope module test $end
$scope module pm $end
$scope module rf $end
$var reg 32 ]" \r[11] [31:0] $end
$upscope $end
$upscope $end
$upscope $end
$scope module test $end
$scope module pm $end
$scope module rf $end
$var reg 32 ^" \r[12] [31:0] $end
$upscope $end
$upscope $end
$upscope $end
$scope module test $end
$scope module pm $end
$scope module rf $end
$var reg 32 _" \r[13] [31:0] $end
$upscope $end
$upscope $end
$upscope $end
$scope module test $end
$scope module pm $end
$scope module rf $end
$var reg 32 `" \r[14] [31:0] $end
$upscope $end
$upscope $end
$upscope $end
$scope module test $end
$scope module pm $end
$scope module rf $end
$var reg 32 a" \r[15] [31:0] $end
$upscope $end
$upscope $end
$upscope $end
$scope module test $end
$scope module pm $end
$scope module rf $end
$var reg 32 b" \r[16] [31:0] $end
$upscope $end
$upscope $end
$upscope $end
$scope module test $end
$scope module pm $end
$scope module rf $end
$var reg 32 c" \r[17] [31:0] $end
$upscope $end
$upscope $end
$upscope $end
$scope module test $end
$scope module pm $end
$scope module rf $end
$var reg 32 d" \r[18] [31:0] $end
$upscope $end
$upscope $end
$upscope $end
$scope module test $end
$scope module pm $end
$scope module rf $end
$var reg 32 e" \r[19] [31:0] $end
$upscope $end
$upscope $end
$upscope $end
$scope module test $end
$scope module pm $end
$scope module rf $end
$var reg 32 f" \r[20] [31:0] $end
$upscope $end
$upscope $end
$upscope $end
$scope module test $end
$scope module pm $end
$scope module rf $end
$var reg 32 g" \r[21] [31:0] $end
$upscope $end
$upscope $end
$upscope $end
$scope module test $end
$scope module pm $end
$scope module rf $end
$var reg 32 h" \r[22] [31:0] $end
$upscope $end
$upscope $end
$upscope $end
$scope module test $end
$scope module pm $end
$scope module rf $end
$var reg 32 i" \r[23] [31:0] $end
$upscope $end
$upscope $end
$upscope $end
$scope module test $end
$scope module pm $end
$scope module rf $end
$var reg 32 j" \r[24] [31:0] $end
$upscope $end
$upscope $end
$upscope $end
$scope module test $end
$scope module pm $end
$scope module rf $end
$var reg 32 k" \r[25] [31:0] $end
$upscope $end
$upscope $end
$upscope $end
$scope module test $end
$scope module pm $end
$scope module rf $end
$var reg 32 l" \r[26] [31:0] $end
$upscope $end
$upscope $end
$upscope $end
$scope module test $end
$scope module pm $end
$scope module rf $end
$var reg 32 m" \r[27] [31:0] $end
$upscope $end
$upscope $end
$upscope $end
$scope module test $end
$scope module pm $end
$scope module rf $end
$var reg 32 n" \r[28] [31:0] $end
$upscope $end
$upscope $end
$upscope $end
$scope module test $end
$scope module pm $end
$scope module rf $end
$var reg 32 o" \r[29] [31:0] $end
$upscope $end
$upscope $end
$upscope $end
$scope module test $end
$scope module pm $end
$scope module rf $end
$var reg 32 p" \r[30] [31:0] $end
$upscope $end
$upscope $end
$upscope $end
$scope module test $end
$scope module pm $end
$scope module rf $end
$var reg 32 q" \r[31] [31:0] $end
$upscope $end
$upscope $end
$upscope $end
$enddefinitions $end
#0
$dumpvars
b10000000000010000000000000000 q"
b10000000000010000000000000000 p"
b10000000000010000000000000000 o"
b10000000000010000000000000000 n"
b10000000000010000000000000000 m"
b10000000000010000000000000000 l"
b10000000000010000000000000000 k"
b10000000000010000000000000000 j"
b10000000000010000000000000000 i"
b10000000000010000000000000000 h"
b10000000000010000000000000000 g"
b10000000000010000000000000000 f"
b10000000000010000000000000000 e"
b10000000000010000000000000000 d"
b10000000000010000000000000000 c"
b10000000000010000000000000000 b"
b10000000000010000000000000000 a"
b10000000000010000000000000000 `"
b10000000000010000000000000000 _"
b10000000000010000000000000000 ^"
b10000000000010000000000000000 ]"
b10000000000010000000000000000 \"
b10000000000010000000000000000 ["
b10000000000010000000000000000 Z"
b10000000000010000000000000000 Y"
b10000000000010000000000000000 X"
b10000000000010000000000000000 W"
b10000000000010000000000000000 V"
b10000000000010000000000000000 U"
b10000000000010000000000000000 T"
b10000000000010000000000000000 S"
b0 R"
bx Q"
1P"
bx O"
bx N"
bx M"
bx L"
bx K"
bx J"
bx I"
bx H"
bx G"
b100000 F"
bx E"
bx D"
bx C"
bx B"
bx A"
bx @"
bx ?"
bx >"
1="
bx <"
1;"
1:"
bx 9"
bx 8"
bx 7"
bx 6"
bx 5"
bx 4"
13"
bx 2"
bx 1"
b1 0"
bx /"
1."
1-"
1,"
bx +"
1*"
bx )"
bx ("
bx '"
bx &"
bx %"
bx $"
b100000000 #"
bx ""
bx !"
bx ~
bx }
bx |
bx {
bx z
bx y
bx x
bx w
bx v
bx u
bx t
xs
bx r
xq
bx p
b1000000000000000000 o
bx n
bx m
xl
bx k
bx j
bx i
bx h
bx g
bx f
bx e
bx d
bx c
1b
bx a
bx `
1_
bx ^
1]
bx \
bx [
bx Z
bx Y
bx X
bx W
bx V
xU
1T
bx S
bx R
xQ
xP
xO
xN
bx M
xL
xK
xJ
xI
xH
xG
bx00 F
bx E
bx D
xC
xB
xA
x@
bx ?
bx >
bx =
bx <
bx ;
bx :
bx 9
bx 8
bx 7
bx 6
bx 5
bx 4
bx 3
bx 2
bx 1
bx 0
bx /
bx .
bx -
bx ,
bx +
x*
x)
x(
x'
x&
b100000 %
1$
0#
0"
bx00 !
$end
#2
b0 ,
b0 7"
b0 <"
b0 9"
b0 8"
b0 H"
b11011110101011011011111011101111 i
b0 m
1U
b0 -
b0 E"
b0 L"
b100000000000000000000 /"
b100000000000000000000 !"
b0 :
b0 p
1s
b0 4
b0 r
b0 2
b0 6"
b0 .
b0 5"
b0 D"
b0 /
b0 B"
b0 9
b0 %"
b0 d
0'
0(
0l
b0 x
b0 }
b0 ("
0)
b0 M"
b0 N"
b10000000000000000000000 F
b10000000000000000000000 !
b100000000000000000000 W
b0 8
b0 +"
b0 E
b0 g
b0 4"
b0 G"
b0 +
b0 >"
b0 @"
b0 =
b0 n
b0 Q"
b0 ?
b0 ^
b0 h
b0 u
b0 z
b0 J"
b0 R
b0 [
b0 a
0@
0N
0P
0K
0G
0I
0B
1"
#3
b0 M
b0 Y
b0 &"
b0 '"
b0 ;
b0 {
b0 $"
b0 O"
b0 <
b0 Z
b0 v
b0 |
b0 w
b0 ?"
b0 0
b0 ~
b0 C"
b0 1
b0 y
b0 A"
#4
0A
b0 5
b0 V
b0 c
b0 e
0&
1C
0Q
1*
b0 S
b0 `
b0 t
1q
b0 D
b0 f
b0 I"
b100000000000000000001 3
b100000000000000000001 1"
b100000000000000000001 2"
0O
0J
0L
0H
0"
#5
b0 >
b0 X
b0 \
b10001110100000100000000000000000 6
b10001110100000100000000000000000 ""
b10001110100000100000000000000000 )"
b0 7
b0 j
b0 K"
b0 k
#6
1"
#7
0$
#8
0"
#10
b100000000000000000001 5
b100000000000000000001 V
b100000000000000000001 c
b0 /"
b0 !"
0s
b100011 4
b100011 r
b10 .
b10 5"
b10 D"
b10100 /
b10100 B"
b100000000000000000001 d
b0 F
b0 !
b0 W
b10001110100000100000000000000000 8
b10001110100000100000000000000000 +"
b100000000000000000001 E
b100000000000000000001 g
b100000000000000000001 4"
b100000000000000000001 G"
1B
1"
#11
b10000000000010000000000000000 M
b10000000000010000000000000000 Y
b10000000000010000000000000000 &"
b10000000000010000000000000000 '"
b10000000000010000000000000000 ;
b10000000000010000000000000000 {
b10000000000010000000000000000 $"
b10000000000010000000000000000 O"
b10000000000010000000000000000 <
b10000000000010000000000000000 Z
b10000000000010000000000000000 v
b10000000000010000000000000000 |
b10000000000010000000000000000 w
b10000000000010000000000000000 0
b10000000000010000000000000000 ~
b10000000000010000000000000000 C"
b10000000000010000000000000000 1
b10000000000010000000000000000 y
b10000000000010000000000000000 A"
#12
b10 ,
b10 7"
b10 <"
1A
b10 8"
0C
1Q
0q
b1 3
b1 1"
b1 2"
1J
1L
b100000000000000000001 D
b100000000000000000001 f
b100000000000000000001 I"
0"
#13
b100000000000100000000000000000 >
b100000000000100000000000000000 X
b100000000000100000000000000000 \
#14
0U
1)
b0 M
b0 Y
b0 &"
b1000000000000000 m
b100000000000100000000000000000 ;
b100000000000100000000000000000 {
b100000000000100000000000000000 $"
b100000000000100000000000000000 O"
b0 |
b1 5
b1 V
b1 c
b0 '"
b100000000000100000000000000000 }
1(
b1 d
b100000000000000000001 /"
b100000000000000000001 !"
0B
1I
1K
1P
1@
b100000000000100000000000000000 ?
b100000000000100000000000000000 ^
b100000000000100000000000000000 h
b100000000000100000000000000000 u
b100000000000100000000000000000 z
b100000000000100000000000000000 J"
b10000000000010000000000000000 =
b10000000000010000000000000000 n
b10000000000010000000000000000 Q"
b10 +
b10 >"
b10 @"
b1 E
b1 g
b1 4"
b1 G"
b10000000000000000000100 F
b10000000000000000000100 !
b100000000000000000001 W
1"
#15
0*
#16
b10000000000010000000000000000 >
b10000000000010000000000000000 X
b10000000000010000000000000000 \
b100000000000000000010 3
b100000000000000000010 1"
b100000000000000000010 2"
b1 D
b1 f
b1 I"
0"
#17
b11011110101011011011111011101111 -
b11011110101011011011111011101111 E"
b11011110101011011011111011101111 L"
b11011110101011011011111011101111 N"
b10001110100000110000000000000100 6
b10001110100000110000000000000100 ""
b10001110100000110000000000000100 )"
b11011110101011011011111011101111 7
b11011110101011011011111011101111 j
b11011110101011011011111011101111 K"
b10000000000010000000000000000 k
#18
1U
0)
b10000000000010000000000000000 |
0(
b11 ,
b11 7"
b11 <"
b100 M
b100 Y
b100 &"
b11 8"
b100 H"
b100 ("
b100000000000000000010 5
b100000000000000000010 V
b100000000000000000010 c
b1 i
b100000000000000 m
b10000000000010000000000000000 ;
b10000000000010000000000000000 {
b10000000000010000000000000000 $"
b10000000000010000000000000000 O"
b100 :
b100 p
b11 .
b11 5"
b11 D"
b100 9
b100 %"
b100000000000000000010 d
1l
b0 }
b11011110101011011011111011101111 T"
b10001110100000110000000000000100 8
b10001110100000110000000000000100 +"
b100000000000000000010 E
b100000000000000000010 g
b100000000000000000010 4"
b100000000000000000010 G"
b100000000000100000000000000000 =
b100000000000100000000000000000 n
b100000000000100000000000000000 Q"
b10000000000010000000000000000 ?
b10000000000010000000000000000 ^
b10000000000010000000000000000 h
b10000000000010000000000000000 u
b10000000000010000000000000000 z
b10000000000010000000000000000 J"
b11011110101011011011111011101111 ?"
1"
#20
b10000000000010000000000000100 >
b10000000000010000000000000100 X
b10000000000010000000000000100 \
b100000000000000000110 D
b100000000000000000110 f
b100000000000000000110 I"
0"
#21
b1 -
b1 E"
b1 L"
b1 N"
b1 7
b1 j
b1 K"
b100000000000100000000000000000 k
#22
b10000000000010000000000000100 ;
b10000000000010000000000000100 {
b10000000000010000000000000100 $"
b10000000000010000000000000100 O"
0U
b0 |
b10000000000010000000000000100 }
1)
b11111111 i
b100000000000001 m
1(
b100000000000000000010 /"
b100000000000000000010 !"
b10000000000010000000000000100 ?
b10000000000010000000000000100 ^
b10000000000010000000000000100 h
b10000000000010000000000000100 u
b10000000000010000000000000100 z
b10000000000010000000000000100 J"
b10000000000010000000000000000 =
b10000000000010000000000000000 n
b10000000000010000000000000000 Q"
b11 +
b11 >"
b11 @"
b1 T"
b10000000000000000001000 F
b10000000000000000001000 !
b100000000000000000010 W
b1 ?"
1"
#24
b100000000000000000011 3
b100000000000000000011 1"
b100000000000000000011 2"
0"
#25
b11111111 -
b11111111 E"
b11111111 L"
b11111111 N"
b11111111 7
b11111111 j
b11111111 K"
b10001110100001000000000000001000 6
b10001110100001000000000000001000 ""
b10001110100001000000000000001000 )"
b10000000000010000000000000000 k
#26
1U
b10000000000010000000000000000 ;
b10000000000010000000000000000 {
b10000000000010000000000000000 $"
b10000000000010000000000000000 O"
0)
b10000000000010000000000000000 |
b0 }
0(
b100 ,
b100 7"
b100 <"
b1000 M
b1000 Y
b1000 &"
b100 8"
b1000 H"
b1000 ("
b100000000000000000011 5
b100000000000000000011 V
b100000000000000000011 c
b1000 :
b1000 p
b100 .
b100 5"
b100 D"
b1000 9
b1000 %"
b100000000000000000011 d
b11111111 U"
b10001110100001000000000000001000 8
b10001110100001000000000000001000 +"
b100000000000000000011 E
b100000000000000000011 g
b100000000000000000011 4"
b100000000000000000011 G"
b10000000000010000000000000100 =
b10000000000010000000000000100 n
b10000000000010000000000000100 Q"
b11111111 ?"
1"
#28
b10000000000010000000000001000 >
b10000000000010000000000001000 X
b10000000000010000000000001000 \
b100000000000000001011 D
b100000000000000001011 f
b100000000000000001011 I"
0"
#29
b10000000000010000000000000100 k
#30
b10000000000010000000000001000 ;
b10000000000010000000000001000 {
b10000000000010000000000001000 $"
b10000000000010000000000001000 O"
0U
b0 |
b10000000000010000000000001000 }
1)
b10000000000 i
b100000000000010 m
1(
b100000000000000000011 /"
b100000000000000000011 !"
b10000000000010000000000001000 ?
b10000000000010000000000001000 ^
b10000000000010000000000001000 h
b10000000000010000000000001000 u
b10000000000010000000000001000 z
b10000000000010000000000001000 J"
b10000000000010000000000000000 =
b10000000000010000000000000000 n
b10000000000010000000000000000 Q"
b100 +
b100 >"
b100 @"
b11111111 U"
b10000000000000000001100 F
b10000000000000000001100 !
b100000000000000000011 W
1"
#32
b100000000000000000100 3
b100000000000000000100 1"
b100000000000000000100 2"
0"
#33
b10000000000 -
b10000000000 E"
b10000000000 L"
b10000000000 N"
b10000000000 7
b10000000000 j
b10000000000 K"
b10001110100001010000000000001100 6
b10001110100001010000000000001100 ""
b10001110100001010000000000001100 )"
b10000000000010000000000000000 k
#34
1U
b10000000000010000000000000000 ;
b10000000000010000000000000000 {
b10000000000010000000000000000 $"
b10000000000010000000000000000 O"
0)
b10000000000010000000000000000 |
b0 }
0(
b101 ,
b101 7"
b101 <"
b1100 M
b1100 Y
b1100 &"
b101 8"
b1100 H"
b1100 ("
b100000000000000000100 5
b100000000000000000100 V
b100000000000000000100 c
b1100 :
b1100 p
b101 .
b101 5"
b101 D"
b1100 9
b1100 %"
b100000000000000000100 d
b10000000000 V"
b10001110100001010000000000001100 8
b10001110100001010000000000001100 +"
b100000000000000000100 E
b100000000000000000100 g
b100000000000000000100 4"
b100000000000000000100 G"
b10000000000010000000000001000 =
b10000000000010000000000001000 n
b10000000000010000000000001000 Q"
b10000000000 ?"
1"
#36
b10000000000010000000000001100 >
b10000000000010000000000001100 X
b10000000000010000000000001100 \
b100000000000000010000 D
b100000000000000010000 f
b100000000000000010000 I"
0"
#37
b10000000000010000000000001000 k
#38
b10000000000010000000000001100 ;
b10000000000010000000000001100 {
b10000000000010000000000001100 $"
b10000000000010000000000001100 O"
0U
b0 |
b10000000000010000000000001100 }
1)
b1100100 i
b100000000000011 m
1(
b100000000000000000100 /"
b100000000000000000100 !"
b10000000000010000000000001100 ?
b10000000000010000000000001100 ^
b10000000000010000000000001100 h
b10000000000010000000000001100 u
b10000000000010000000000001100 z
b10000000000010000000000001100 J"
b10000000000010000000000000000 =
b10000000000010000000000000000 n
b10000000000010000000000000000 Q"
b101 +
b101 >"
b101 @"
b10000000000 V"
b10000000000000000010000 F
b10000000000000000010000 !
b100000000000000000100 W
1"
#40
b100000000000000000101 3
b100000000000000000101 1"
b100000000000000000101 2"
0"
#41
b1100100 -
b1100100 E"
b1100100 L"
b1100100 N"
b1100100 7
b1100100 j
b1100100 K"
b10001110100001100000000000010000 6
b10001110100001100000000000010000 ""
b10001110100001100000000000010000 )"
b10000000000010000000000000000 k
#42
1U
b10000000000010000000000000000 ;
b10000000000010000000000000000 {
b10000000000010000000000000000 $"
b10000000000010000000000000000 O"
0)
b10000000000010000000000000000 |
b0 }
0(
b110 ,
b110 7"
b110 <"
b10000 M
b10000 Y
b10000 &"
b110 8"
b10000 H"
b10000 ("
b100000000000000000101 5
b100000000000000000101 V
b100000000000000000101 c
b10000 :
b10000 p
b110 .
b110 5"
b110 D"
b10000 9
b10000 %"
b100000000000000000101 d
b1100100 W"
b10001110100001100000000000010000 8
b10001110100001100000000000010000 +"
b100000000000000000101 E
b100000000000000000101 g
b100000000000000000101 4"
b100000000000000000101 G"
b10000000000010000000000001100 =
b10000000000010000000000001100 n
b10000000000010000000000001100 Q"
b1100100 ?"
1"
#44
b10000000000010000000000010000 >
b10000000000010000000000010000 X
b10000000000010000000000010000 \
b100000000000000010101 D
b100000000000000010101 f
b100000000000000010101 I"
0"
#45
b10000000000010000000000001100 k
#46
b10000000000010000000000010000 ;
b10000000000010000000000010000 {
b10000000000010000000000010000 $"
b10000000000010000000000010000 O"
0U
b0 |
b10000000000010000000000010000 }
1)
b11001000 i
b100000000000100 m
1(
b100000000000000000101 /"
b100000000000000000101 !"
b10000000000010000000000010000 ?
b10000000000010000000000010000 ^
b10000000000010000000000010000 h
b10000000000010000000000010000 u
b10000000000010000000000010000 z
b10000000000010000000000010000 J"
b10000000000010000000000000000 =
b10000000000010000000000000000 n
b10000000000010000000000000000 Q"
b110 +
b110 >"
b110 @"
b1100100 W"
b10000000000000000010100 F
b10000000000000000010100 !
b100000000000000000101 W
1"
#48
b100000000000000000110 3
b100000000000000000110 1"
b100000000000000000110 2"
0"
#49
b11001000 -
b11001000 E"
b11001000 L"
b11001000 N"
b11001000 7
b11001000 j
b11001000 K"
b10000100011100000100000 6
b10000100011100000100000 ""
b10000100011100000100000 )"
b10000000000010000000000000000 k
#50
1U
b10000000000010000000000000000 ;
b10000000000010000000000000000 {
b10000000000010000000000000000 $"
b10000000000010000000000000000 O"
0)
b10000000000010000000000000000 |
b0 }
0(
b10 ,
b10 7"
b10 <"
b11100000100000 M
b11100000100000 Y
b11100000100000 &"
b10 8"
b11100000100000 H"
b11100000100000 ("
b100000000000000000110 5
b100000000000000000110 V
b100000000000000000110 c
b100000 :
b100000 p
1s
b0 4
b0 r
b111 2
b111 6"
b10 .
b10 5"
b10 D"
b10 /
b10 B"
b11100000100000 9
b11100000100000 %"
b100000000000000000110 d
b11001000 X"
b10000100011100000100000 8
b10000100011100000100000 +"
b100000000000000000110 E
b100000000000000000110 g
b100000000000000000110 4"
b100000000000000000110 G"
b10000000000010000000000010000 =
b10000000000010000000000010000 n
b10000000000010000000000010000 Q"
b11001000 ?"
1"
#51
b1 <
b1 Z
b1 v
b1 ;
b1 {
b1 $"
b1 O"
b1 w
b1 |
b1 1
b1 y
b1 A"
b1 0
b1 ~
b1 C"
#52
b111 ,
b111 7"
b111 <"
b0 8"
b111 9"
1C
0Q
0J
0L
b100000011100000100110 D
b100000011100000100110 f
b100000011100000100110 I"
0"
#53
b11100000100001 >
b11100000100001 X
b11100000100001 \
b10000000000010000000000010000 k
#54
b1 M
b1 Y
b1 &"
b11011110101011011011111011101111 i
b111000001000 m
b11100000100001 -
b11100000100001 E"
b11100000100001 L"
b0 N"
b1 '"
b0 ("
0l
b11100000100001 M"
b100000000000000000110 /"
b100000000000000000110 !"
1B
0I
0K
0P
b11100000100001 ?
b11100000100001 ^
b11100000100001 h
b11100000100001 u
b11100000100001 z
b11100000100001 J"
b1 =
b1 n
b1 Q"
b111 +
b111 >"
b111 @"
b11001000 X"
b10000000000000000011000 F
b10000000000000000011000 !
b100000000000000000110 W
1"
#55
1*
b11100000100001 ?"
#56
b10 >
b10 X
b10 \
b100000000000000000111 3
b100000000000000000111 1"
b100000000000000000111 2"
0"
#57
b100000110100000000100000 6
b100000110100000000100000 ""
b100000110100000000100000 )"
b0 7
b0 j
b0 K"
b1 k
#58
b1000 ,
b1000 7"
b1000 <"
b1000 9"
b100000000100000 H"
b100000000000000000111 5
b100000000000000000111 V
b100000000000000000111 c
b0 m
b10 -
b10 E"
b10 L"
b1000 2
b1000 6"
b11 .
b11 5"
b11 D"
b100 /
b100 B"
b100000000100000 9
b100000000100000 %"
b100000000000000000111 d
b10 M"
b11100000100001 Y"
b100000110100000000100000 8
b100000110100000000100000 +"
b100000000000000000111 E
b100000000000000000111 g
b100000000000000000111 4"
b100000000000000000111 G"
b10 ?
b10 ^
b10 h
b10 u
b10 z
b10 J"
1"
#59
b11111111 M
b11111111 Y
b11111111 &"
b11111111 '"
b11111111 ;
b11111111 {
b11111111 $"
b11111111 O"
b10000000000 <
b10000000000 Z
b10000000000 v
b11111111 |
b10000000000 w
b10 ?"
b11111111 0
b11111111 ~
b11111111 C"
b10000000000 1
b10000000000 y
b10000000000 A"
